Desktop/PROCESSOR/temp/main.vcd
$date
	Wed Dec 11 17:48:30 2024
$end
$version
	Icarus Verilog
$end
$timescale
	1s
$end
$scope module main_tb $end
$var reg 1 ! clk $end
$var reg 1 " reset $end
$scope module u_processor $end
$var wire 1 ! clk $end
$var wire 1 " reset $end
$var wire 32 # write_data [31:0] $end
$var wire 32 $ word_align_address [31:0] $end
$var wire 1 % selA $end
$var wire 5 & rs2 [4:0] $end
$var wire 5 ' rs1 [4:0] $end
$var wire 1 ( result_src $end
$var wire 1 ) reg_write $end
$var wire 32 * read2 [31:0] $end
$var wire 32 + read1 [31:0] $end
$var wire 5 , rd [4:0] $end
$var wire 2 - pc_src [1:0] $end
$var wire 32 . pc_next [31:0] $end
$var wire 32 / pc [31:0] $end
$var wire 7 0 op [6:0] $end
$var wire 1 1 mem_write $end
$var wire 32 2 mem_out [31:0] $end
$var wire 32 3 instruction [31:0] $end
$var wire 32 4 immediate [31:0] $end
$var wire 2 5 imm_src [1:0] $end
$var wire 7 6 funct7 [6:0] $end
$var wire 3 7 funct3 [2:0] $end
$var wire 1 8 branch_alu $end
$var wire 1 9 branch $end
$var wire 1 : alu_src $end
$var wire 32 ; alu_result [31:0] $end
$var wire 2 < alu_op [1:0] $end
$var wire 3 = alu_control [2:0] $end
$scope module u_ALU $end
$var wire 32 > A [31:0] $end
$var wire 32 ? B [31:0] $end
$var wire 3 @ control_signal [2:0] $end
$var wire 1 8 branch $end
$var reg 32 A result [31:0] $end
$upscope $end
$scope module u_PC $end
$var wire 1 ! clk $end
$var wire 32 B instr [31:0] $end
$var wire 32 C pc_next [31:0] $end
$var wire 1 " reset $end
$var wire 32 D pc [31:0] $end
$var wire 32 E WAA [31:0] $end
$var reg 32 F pc_reg [31:0] $end
$var reg 32 G programCounter [31:0] $end
$upscope $end
$scope module u_alu_decoder $end
$var wire 3 H funct3 [2:0] $end
$var wire 1 I funct7 $end
$var wire 2 J aluop [1:0] $end
$var reg 3 K alu_control [2:0] $end
$upscope $end
$scope module u_data_mem $end
$var wire 32 L A [31:0] $end
$var wire 1 M auipc_enable $end
$var wire 1 ! clk $end
$var wire 3 N funct3 [2:0] $end
$var wire 7 O funct7 [6:0] $end
$var wire 32 P imm_data [31:0] $end
$var wire 1 Q j_type_enable $end
$var wire 1 R jalr_enable $end
$var wire 4 S mask [3:0] $end
$var wire 1 T r_type_enable $end
$var wire 32 U rs1 [31:0] $end
$var wire 32 V rs2 [31:0] $end
$var wire 1 W u_type_enable $end
$var wire 1 1 write_enable $end
$var wire 32 X write_data [31:0] $end
$var wire 10 Y address_index [9:0] $end
$var reg 32 Z rd [31:0] $end
$upscope $end
$scope module u_decoder $end
$var wire 7 [ op [6:0] $end
$var wire 1 ) reg_write $end
$var wire 1 % selA $end
$var wire 1 ( result_src $end
$var wire 2 \ pc_src [1:0] $end
$var wire 1 1 mem_write $end
$var wire 2 ] imm_src [1:0] $end
$var wire 1 9 branch $end
$var wire 1 : alu_src $end
$var wire 2 ^ alu_op [1:0] $end
$upscope $end
$scope module u_immediate_gen $end
$var wire 2 _ imm_src [1:0] $end
$var wire 32 ` instruction [31:0] $end
$var reg 32 a immediate [31:0] $end
$upscope $end
$scope module u_register_file $end
$var wire 1 ! clk $end
$var wire 5 b rd [4:0] $end
$var wire 32 c read1 [31:0] $end
$var wire 32 d read2 [31:0] $end
$var wire 1 ) reg_write $end
$var wire 1 " reset $end
$var wire 5 e rs1 [4:0] $end
$var wire 5 f rs2 [4:0] $end
$var wire 32 g write [31:0] $end
$var integer 32 h i [31:0] $end
$upscope $end
$upscope $end
$upscope $end
$enddefinitions $end
#0
$dumpvars
bx h
bx g
bx f
bx e
bx d
bx c
bx b
bx0 a
bx `
bx _
bx ^
bx ]
bx \
bx [
b0 Z
bx Y
bx X
zW
bz V
bz U
zT
bz S
zR
zQ
bz P
bz O
bz N
zM
bx L
b0 K
bx J
xI
bx H
bx G
bx F
b0xxxxx E
bx D
bx C
bx B
bx A
b0 @
bx ?
bx >
b0 =
bx <
bx ;
x:
x9
x8
bx 7
bx 6
bx 5
bx0 4
bx 3
b0 2
x1
bx 0
bx /
bx .
bx -
bx ,
bx +
bx *
x)
x(
bx '
bx &
x%
b0xxxxx $
bx #
0"
0!
$end
#5
1!
#10
b1010 ?
b100 .
b100 C
1:
b0 5
b0 ]
b0 _
b0 -
b0 \
0%
0I
1)
01
0(
09
b0 <
b0 J
b0 ^
b1010 4
b1010 a
b0 6
b1010 &
b1010 f
b0 '
b0 e
b0 7
b0 H
b101 ,
b101 b
b10011 0
b10011 [
b0 $
b0 E
b101000000000001010010011 3
b101000000000001010010011 B
b101000000000001010010011 `
b0 /
b0 G
b0 D
b0 F
0!
1"
#15
b10 Y
b1010 #
b1010 g
b1010 ;
b1010 A
b1010 L
08
b0 >
b0 *
b0 X
b0 d
b0 +
b0 c
b100000 h
1!
#20
0!
#25
b0 Y
b0 #
b0 g
b0 ;
b0 A
b0 L
18
b0 ?
b1000 .
b1000 C
b0 4
b0 a
b0 &
b0 f
b110 ,
b110 b
b1 $
b1 E
b1100010011 3
b1100010011 B
b1100010011 `
b100 /
b100 G
b100 D
b100 F
1!
0"
#30
0!
#35
0:
1)
b1100 .
b1100 C
b111 ,
b111 b
b110011 0
b110011 [
b10 $
b10 E
b1110110011 3
b1110110011 B
b1110110011 `
b1000 /
b1000 G
b1000 D
b1000 F
1!
#40
0!
#45
b1 #
b1 g
b1 ;
b1 A
b1 L
08
b1 ?
1:
b10000 .
b10000 C
b1 4
b1 a
b1 &
b1 f
b11100 ,
b11100 b
b10011 0
b10011 [
b11 $
b11 E
b100000000111000010011 3
b100000000111000010011 B
b100000000111000010011 `
b1100 /
b1100 G
b1100 D
b1100 F
1!
#50
0!
#55
b0 Y
b0 #
b0 g
b111 =
b111 @
b111 K
b1 -
b1 \
b0 ;
b0 A
b0 L
0:
b10 5
b10 ]
b10 _
b1 <
b1 J
b1 ^
b1010 ?
0)
19
b0 .
b0 C
b1100 4
b1100 a
b1010 *
b1010 X
b1010 d
b101 &
b101 f
b110 '
b110 e
b1100 ,
b1100 b
b1100011 0
b1100011 [
b100 $
b100 E
b10100110000011001100011 3
b10100110000011001100011 B
b10100110000011001100011 `
b10000 /
b10000 G
b10000 D
b10000 F
1!
#60
0!
#65
b10 Y
b100 .
b100 C
b1010 #
b1010 g
b0 -
b0 \
b1010 ;
b1010 A
b1010 L
b0 =
b0 @
b0 K
08
1:
b0 5
b0 ]
b0 _
b0 <
b0 J
b0 ^
b1010 ?
1)
09
b1010 4
b1010 a
b0 *
b0 X
b0 d
b1010 &
b1010 f
b0 '
b0 e
b101 ,
b101 b
b10011 0
b10011 [
b0 $
b0 E
b101000000000001010010011 3
b101000000000001010010011 B
b101000000000001010010011 `
b0 /
b0 G
b0 D
b0 F
1!
#70
0!
#75
b0 Y
b0 #
b0 g
b0 ;
b0 A
b0 L
18
b0 ?
b1000 .
b1000 C
b0 4
b0 a
b0 &
b0 f
b110 ,
b110 b
b1 $
b1 E
b1100010011 3
b1100010011 B
b1100010011 `
b100 /
b100 G
b100 D
b100 F
1!
#80
0!
#85
0:
1)
b1100 .
b1100 C
b111 ,
b111 b
b110011 0
b110011 [
b10 $
b10 E
b1110110011 3
b1110110011 B
b1110110011 `
b1000 /
b1000 G
b1000 D
b1000 F
1!
#90
0!
#95
b1 #
b1 g
b1 ;
b1 A
b1 L
08
b1 ?
1:
b10000 .
b10000 C
b1 4
b1 a
b1 &
b1 f
b11100 ,
b11100 b
b10011 0
b10011 [
b11 $
b11 E
b100000000111000010011 3
b100000000111000010011 B
b100000000111000010011 `
b1100 /
b1100 G
b1100 D
b1100 F
1!
#100
0!
#105
b0 Y
b0 #
b0 g
b111 =
b111 @
b111 K
b1 -
b1 \
b0 ;
b0 A
b0 L
0:
b10 5
b10 ]
b10 _
b1 <
b1 J
b1 ^
b1010 ?
0)
19
b0 .
b0 C
b1100 4
b1100 a
b1010 *
b1010 X
b1010 d
b101 &
b101 f
b110 '
b110 e
b1100 ,
b1100 b
b1100011 0
b1100011 [
b100 $
b100 E
b10100110000011001100011 3
b10100110000011001100011 B
b10100110000011001100011 `
b10000 /
b10000 G
b10000 D
b10000 F
1!
#110
0!
#115
b10 Y
b100 .
b100 C
b1010 #
b1010 g
b0 -
b0 \
b1010 ;
b1010 A
b1010 L
b0 =
b0 @
b0 K
08
1:
b0 5
b0 ]
b0 _
b0 <
b0 J
b0 ^
b1010 ?
1)
09
b1010 4
b1010 a
b0 *
b0 X
b0 d
b1010 &
b1010 f
b0 '
b0 e
b101 ,
b101 b
b10011 0
b10011 [
b0 $
b0 E
b101000000000001010010011 3
b101000000000001010010011 B
b101000000000001010010011 `
b0 /
b0 G
b0 D
b0 F
1!
#120
0!
#125
b0 Y
b0 #
b0 g
b0 ;
b0 A
b0 L
18
b0 ?
b1000 .
b1000 C
b0 4
b0 a
b0 &
b0 f
b110 ,
b110 b
b1 $
b1 E
b1100010011 3
b1100010011 B
b1100010011 `
b100 /
b100 G
b100 D
b100 F
1!
#130
0!
#135
0:
1)
b1100 .
b1100 C
b111 ,
b111 b
b110011 0
b110011 [
b10 $
b10 E
b1110110011 3
b1110110011 B
b1110110011 `
b1000 /
b1000 G
b1000 D
b1000 F
1!
#140
0!
#145
b1 #
b1 g
b1 ;
b1 A
b1 L
08
b1 ?
1:
b10000 .
b10000 C
b1 4
b1 a
b1 &
b1 f
b11100 ,
b11100 b
b10011 0
b10011 [
b11 $
b11 E
b100000000111000010011 3
b100000000111000010011 B
b100000000111000010011 `
b1100 /
b1100 G
b1100 D
b1100 F
1!
#150
0!
#155
b0 Y
b0 #
b0 g
b111 =
b111 @
b111 K
b1 -
b1 \
b0 ;
b0 A
b0 L
0:
b10 5
b10 ]
b10 _
b1 <
b1 J
b1 ^
b1010 ?
0)
19
b0 .
b0 C
b1100 4
b1100 a
b1010 *
b1010 X
b1010 d
b101 &
b101 f
b110 '
b110 e
b1100 ,
b1100 b
b1100011 0
b1100011 [
b100 $
b100 E
b10100110000011001100011 3
b10100110000011001100011 B
b10100110000011001100011 `
b10000 /
b10000 G
b10000 D
b10000 F
1!
#160
0!
#165
b10 Y
b100 .
b100 C
b1010 #
b1010 g
b0 -
b0 \
b1010 ;
b1010 A
b1010 L
b0 =
b0 @
b0 K
08
1:
b0 5
b0 ]
b0 _
b0 <
b0 J
b0 ^
b1010 ?
1)
09
b1010 4
b1010 a
b0 *
b0 X
b0 d
b1010 &
b1010 f
b0 '
b0 e
b101 ,
b101 b
b10011 0
b10011 [
b0 $
b0 E
b101000000000001010010011 3
b101000000000001010010011 B
b101000000000001010010011 `
b0 /
b0 G
b0 D
b0 F
1!
#170
0!
#175
b0 Y
b0 #
b0 g
b0 ;
b0 A
b0 L
18
b0 ?
b1000 .
b1000 C
b0 4
b0 a
b0 &
b0 f
b110 ,
b110 b
b1 $
b1 E
b1100010011 3
b1100010011 B
b1100010011 `
b100 /
b100 G
b100 D
b100 F
1!
#180
0!
#185
0:
1)
b1100 .
b1100 C
b111 ,
b111 b
b110011 0
b110011 [
b10 $
b10 E
b1110110011 3
b1110110011 B
b1110110011 `
b1000 /
b1000 G
b1000 D
b1000 F
1!
#190
0!
#195
b1 #
b1 g
b1 ;
b1 A
b1 L
08
b1 ?
1:
b10000 .
b10000 C
b1 4
b1 a
b1 &
b1 f
b11100 ,
b11100 b
b10011 0
b10011 [
b11 $
b11 E
b100000000111000010011 3
b100000000111000010011 B
b100000000111000010011 `
b1100 /
b1100 G
b1100 D
b1100 F
1!
#200
0!
#205
b0 Y
b0 #
b0 g
b111 =
b111 @
b111 K
b1 -
b1 \
b0 ;
b0 A
b0 L
0:
b10 5
b10 ]
b10 _
b1 <
b1 J
b1 ^
b1010 ?
0)
19
b0 .
b0 C
b1100 4
b1100 a
b1010 *
b1010 X
b1010 d
b101 &
b101 f
b110 '
b110 e
b1100 ,
b1100 b
b1100011 0
b1100011 [
b100 $
b100 E
b10100110000011001100011 3
b10100110000011001100011 B
b10100110000011001100011 `
b10000 /
b10000 G
b10000 D
b10000 F
1!
#210
0!
#215
b10 Y
b100 .
b100 C
b1010 #
b1010 g
b0 -
b0 \
b1010 ;
b1010 A
b1010 L
b0 =
b0 @
b0 K
08
1:
b0 5
b0 ]
b0 _
b0 <
b0 J
b0 ^
b1010 ?
1)
09
b1010 4
b1010 a
b0 *
b0 X
b0 d
b1010 &
b1010 f
b0 '
b0 e
b101 ,
b101 b
b10011 0
b10011 [
b0 $
b0 E
b101000000000001010010011 3
b101000000000001010010011 B
b101000000000001010010011 `
b0 /
b0 G
b0 D
b0 F
1!
#220
0!
#225
b0 Y
b0 #
b0 g
b0 ;
b0 A
b0 L
18
b0 ?
b1000 .
b1000 C
b0 4
b0 a
b0 &
b0 f
b110 ,
b110 b
b1 $
b1 E
b1100010011 3
b1100010011 B
b1100010011 `
b100 /
b100 G
b100 D
b100 F
1!
#230
0!
#235
0:
1)
b1100 .
b1100 C
b111 ,
b111 b
b110011 0
b110011 [
b10 $
b10 E
b1110110011 3
b1110110011 B
b1110110011 `
b1000 /
b1000 G
b1000 D
b1000 F
1!
#240
0!
#245
b1 #
b1 g
b1 ;
b1 A
b1 L
08
b1 ?
1:
b10000 .
b10000 C
b1 4
b1 a
b1 &
b1 f
b11100 ,
b11100 b
b10011 0
b10011 [
b11 $
b11 E
b100000000111000010011 3
b100000000111000010011 B
b100000000111000010011 `
b1100 /
b1100 G
b1100 D
b1100 F
1!
#250
0!
#255
b0 Y
b0 #
b0 g
b111 =
b111 @
b111 K
b1 -
b1 \
b0 ;
b0 A
b0 L
0:
b10 5
b10 ]
b10 _
b1 <
b1 J
b1 ^
b1010 ?
0)
19
b0 .
b0 C
b1100 4
b1100 a
b1010 *
b1010 X
b1010 d
b101 &
b101 f
b110 '
b110 e
b1100 ,
b1100 b
b1100011 0
b1100011 [
b100 $
b100 E
b10100110000011001100011 3
b10100110000011001100011 B
b10100110000011001100011 `
b10000 /
b10000 G
b10000 D
b10000 F
1!
#260
0!
#265
b10 Y
b100 .
b100 C
b1010 #
b1010 g
b0 -
b0 \
b1010 ;
b1010 A
b1010 L
b0 =
b0 @
b0 K
08
1:
b0 5
b0 ]
b0 _
b0 <
b0 J
b0 ^
b1010 ?
1)
09
b1010 4
b1010 a
b0 *
b0 X
b0 d
b1010 &
b1010 f
b0 '
b0 e
b101 ,
b101 b
b10011 0
b10011 [
b0 $
b0 E
b101000000000001010010011 3
b101000000000001010010011 B
b101000000000001010010011 `
b0 /
b0 G
b0 D
b0 F
1!
#270
0!
#275
b0 Y
b0 #
b0 g
b0 ;
b0 A
b0 L
18
b0 ?
b1000 .
b1000 C
b0 4
b0 a
b0 &
b0 f
b110 ,
b110 b
b1 $
b1 E
b1100010011 3
b1100010011 B
b1100010011 `
b100 /
b100 G
b100 D
b100 F
1!
#280
0!
#285
0:
1)
b1100 .
b1100 C
b111 ,
b111 b
b110011 0
b110011 [
b10 $
b10 E
b1110110011 3
b1110110011 B
b1110110011 `
b1000 /
b1000 G
b1000 D
b1000 F
1!
#290
0!
#295
b1 #
b1 g
b1 ;
b1 A
b1 L
08
b1 ?
1:
b10000 .
b10000 C
b1 4
b1 a
b1 &
b1 f
b11100 ,
b11100 b
b10011 0
b10011 [
b11 $
b11 E
b100000000111000010011 3
b100000000111000010011 B
b100000000111000010011 `
b1100 /
b1100 G
b1100 D
b1100 F
1!
#300
0!
#305
b0 Y
b0 #
b0 g
b111 =
b111 @
b111 K
b1 -
b1 \
b0 ;
b0 A
b0 L
0:
b10 5
b10 ]
b10 _
b1 <
b1 J
b1 ^
b1010 ?
0)
19
b0 .
b0 C
b1100 4
b1100 a
b1010 *
b1010 X
b1010 d
b101 &
b101 f
b110 '
b110 e
b1100 ,
b1100 b
b1100011 0
b1100011 [
b100 $
b100 E
b10100110000011001100011 3
b10100110000011001100011 B
b10100110000011001100011 `
b10000 /
b10000 G
b10000 D
b10000 F
1!
#310
0!
#315
b10 Y
b100 .
b100 C
b1010 #
b1010 g
b0 -
b0 \
b1010 ;
b1010 A
b1010 L
b0 =
b0 @
b0 K
08
1:
b0 5
b0 ]
b0 _
b0 <
b0 J
b0 ^
b1010 ?
1)
09
b1010 4
b1010 a
b0 *
b0 X
b0 d
b1010 &
b1010 f
b0 '
b0 e
b101 ,
b101 b
b10011 0
b10011 [
b0 $
b0 E
b101000000000001010010011 3
b101000000000001010010011 B
b101000000000001010010011 `
b0 /
b0 G
b0 D
b0 F
1!
#320
0!
#325
b0 Y
b0 #
b0 g
b0 ;
b0 A
b0 L
18
b0 ?
b1000 .
b1000 C
b0 4
b0 a
b0 &
b0 f
b110 ,
b110 b
b1 $
b1 E
b1100010011 3
b1100010011 B
b1100010011 `
b100 /
b100 G
b100 D
b100 F
1!
#330
0!
#335
0:
1)
b1100 .
b1100 C
b111 ,
b111 b
b110011 0
b110011 [
b10 $
b10 E
b1110110011 3
b1110110011 B
b1110110011 `
b1000 /
b1000 G
b1000 D
b1000 F
1!
#340
0!
#345
b1 #
b1 g
b1 ;
b1 A
b1 L
08
b1 ?
1:
b10000 .
b10000 C
b1 4
b1 a
b1 &
b1 f
b11100 ,
b11100 b
b10011 0
b10011 [
b11 $
b11 E
b100000000111000010011 3
b100000000111000010011 B
b100000000111000010011 `
b1100 /
b1100 G
b1100 D
b1100 F
1!
#350
0!
#355
b0 Y
b0 #
b0 g
b111 =
b111 @
b111 K
b1 -
b1 \
b0 ;
b0 A
b0 L
0:
b10 5
b10 ]
b10 _
b1 <
b1 J
b1 ^
b1010 ?
0)
19
b0 .
b0 C
b1100 4
b1100 a
b1010 *
b1010 X
b1010 d
b101 &
b101 f
b110 '
b110 e
b1100 ,
b1100 b
b1100011 0
b1100011 [
b100 $
b100 E
b10100110000011001100011 3
b10100110000011001100011 B
b10100110000011001100011 `
b10000 /
b10000 G
b10000 D
b10000 F
1!
#360
0!
#365
b10 Y
b100 .
b100 C
b1010 #
b1010 g
b0 -
b0 \
b1010 ;
b1010 A
b1010 L
b0 =
b0 @
b0 K
08
1:
b0 5
b0 ]
b0 _
b0 <
b0 J
b0 ^
b1010 ?
1)
09
b1010 4
b1010 a
b0 *
b0 X
b0 d
b1010 &
b1010 f
b0 '
b0 e
b101 ,
b101 b
b10011 0
b10011 [
b0 $
b0 E
b101000000000001010010011 3
b101000000000001010010011 B
b101000000000001010010011 `
b0 /
b0 G
b0 D
b0 F
1!
#370
0!
#375
b0 Y
b0 #
b0 g
b0 ;
b0 A
b0 L
18
b0 ?
b1000 .
b1000 C
b0 4
b0 a
b0 &
b0 f
b110 ,
b110 b
b1 $
b1 E
b1100010011 3
b1100010011 B
b1100010011 `
b100 /
b100 G
b100 D
b100 F
1!
#380
0!
#385
0:
1)
b1100 .
b1100 C
b111 ,
b111 b
b110011 0
b110011 [
b10 $
b10 E
b1110110011 3
b1110110011 B
b1110110011 `
b1000 /
b1000 G
b1000 D
b1000 F
1!
#390
0!
#395
b1 #
b1 g
b1 ;
b1 A
b1 L
08
b1 ?
1:
b10000 .
b10000 C
b1 4
b1 a
b1 &
b1 f
b11100 ,
b11100 b
b10011 0
b10011 [
b11 $
b11 E
b100000000111000010011 3
b100000000111000010011 B
b100000000111000010011 `
b1100 /
b1100 G
b1100 D
b1100 F
1!
#400
0!
#405
b0 Y
b0 #
b0 g
b111 =
b111 @
b111 K
b1 -
b1 \
b0 ;
b0 A
b0 L
0:
b10 5
b10 ]
b10 _
b1 <
b1 J
b1 ^
b1010 ?
0)
19
b0 .
b0 C
b1100 4
b1100 a
b1010 *
b1010 X
b1010 d
b101 &
b101 f
b110 '
b110 e
b1100 ,
b1100 b
b1100011 0
b1100011 [
b100 $
b100 E
b10100110000011001100011 3
b10100110000011001100011 B
b10100110000011001100011 `
b10000 /
b10000 G
b10000 D
b10000 F
1!
#410
0!
#415
b10 Y
b100 .
b100 C
b1010 #
b1010 g
b0 -
b0 \
b1010 ;
b1010 A
b1010 L
b0 =
b0 @
b0 K
08
1:
b0 5
b0 ]
b0 _
b0 <
b0 J
b0 ^
b1010 ?
1)
09
b1010 4
b1010 a
b0 *
b0 X
b0 d
b1010 &
b1010 f
b0 '
b0 e
b101 ,
b101 b
b10011 0
b10011 [
b0 $
b0 E
b101000000000001010010011 3
b101000000000001010010011 B
b101000000000001010010011 `
b0 /
b0 G
b0 D
b0 F
1!
#420
0!
#425
b0 Y
b0 #
b0 g
b0 ;
b0 A
b0 L
18
b0 ?
b1000 .
b1000 C
b0 4
b0 a
b0 &
b0 f
b110 ,
b110 b
b1 $
b1 E
b1100010011 3
b1100010011 B
b1100010011 `
b100 /
b100 G
b100 D
b100 F
1!
#430
0!
#435
0:
1)
b1100 .
b1100 C
b111 ,
b111 b
b110011 0
b110011 [
b10 $
b10 E
b1110110011 3
b1110110011 B
b1110110011 `
b1000 /
b1000 G
b1000 D
b1000 F
1!
#440
0!
#445
b1 #
b1 g
b1 ;
b1 A
b1 L
08
b1 ?
1:
b10000 .
b10000 C
b1 4
b1 a
b1 &
b1 f
b11100 ,
b11100 b
b10011 0
b10011 [
b11 $
b11 E
b100000000111000010011 3
b100000000111000010011 B
b100000000111000010011 `
b1100 /
b1100 G
b1100 D
b1100 F
1!
#450
0!
#455
b0 Y
b0 #
b0 g
b111 =
b111 @
b111 K
b1 -
b1 \
b0 ;
b0 A
b0 L
0:
b10 5
b10 ]
b10 _
b1 <
b1 J
b1 ^
b1010 ?
0)
19
b0 .
b0 C
b1100 4
b1100 a
b1010 *
b1010 X
b1010 d
b101 &
b101 f
b110 '
b110 e
b1100 ,
b1100 b
b1100011 0
b1100011 [
b100 $
b100 E
b10100110000011001100011 3
b10100110000011001100011 B
b10100110000011001100011 `
b10000 /
b10000 G
b10000 D
b10000 F
1!
#460
0!
#465
b10 Y
b100 .
b100 C
b1010 #
b1010 g
b0 -
b0 \
b1010 ;
b1010 A
b1010 L
b0 =
b0 @
b0 K
08
1:
b0 5
b0 ]
b0 _
b0 <
b0 J
b0 ^
b1010 ?
1)
09
b1010 4
b1010 a
b0 *
b0 X
b0 d
b1010 &
b1010 f
b0 '
b0 e
b101 ,
b101 b
b10011 0
b10011 [
b0 $
b0 E
b101000000000001010010011 3
b101000000000001010010011 B
b101000000000001010010011 `
b0 /
b0 G
b0 D
b0 F
1!
#470
0!
#475
b0 Y
b0 #
b0 g
b0 ;
b0 A
b0 L
18
b0 ?
b1000 .
b1000 C
b0 4
b0 a
b0 &
b0 f
b110 ,
b110 b
b1 $
b1 E
b1100010011 3
b1100010011 B
b1100010011 `
b100 /
b100 G
b100 D
b100 F
1!
#480
0!
#485
0:
1)
b1100 .
b1100 C
b111 ,
b111 b
b110011 0
b110011 [
b10 $
b10 E
b1110110011 3
b1110110011 B
b1110110011 `
b1000 /
b1000 G
b1000 D
b1000 F
1!
#490
0!
#495
b1 #
b1 g
b1 ;
b1 A
b1 L
08
b1 ?
1:
b10000 .
b10000 C
b1 4
b1 a
b1 &
b1 f
b11100 ,
b11100 b
b10011 0
b10011 [
b11 $
b11 E
b100000000111000010011 3
b100000000111000010011 B
b100000000111000010011 `
b1100 /
b1100 G
b1100 D
b1100 F
1!
#500
0!
#505
b0 Y
b0 #
b0 g
b111 =
b111 @
b111 K
b1 -
b1 \
b0 ;
b0 A
b0 L
0:
b10 5
b10 ]
b10 _
b1 <
b1 J
b1 ^
b1010 ?
0)
19
b0 .
b0 C
b1100 4
b1100 a
b1010 *
b1010 X
b1010 d
b101 &
b101 f
b110 '
b110 e
b1100 ,
b1100 b
b1100011 0
b1100011 [
b100 $
b100 E
b10100110000011001100011 3
b10100110000011001100011 B
b10100110000011001100011 `
b10000 /
b10000 G
b10000 D
b10000 F
1!
#510
0!
#515
b10 Y
b100 .
b100 C
b1010 #
b1010 g
b0 -
b0 \
b1010 ;
b1010 A
b1010 L
b0 =
b0 @
b0 K
08
1:
b0 5
b0 ]
b0 _
b0 <
b0 J
b0 ^
b1010 ?
1)
09
b1010 4
b1010 a
b0 *
b0 X
b0 d
b1010 &
b1010 f
b0 '
b0 e
b101 ,
b101 b
b10011 0
b10011 [
b0 $
b0 E
b101000000000001010010011 3
b101000000000001010010011 B
b101000000000001010010011 `
b0 /
b0 G
b0 D
b0 F
1!
#520
0!
#525
b0 Y
b0 #
b0 g
b0 ;
b0 A
b0 L
18
b0 ?
b1000 .
b1000 C
b0 4
b0 a
b0 &
b0 f
b110 ,
b110 b
b1 $
b1 E
b1100010011 3
b1100010011 B
b1100010011 `
b100 /
b100 G
b100 D
b100 F
1!
#530
0!
#535
0:
1)
b1100 .
b1100 C
b111 ,
b111 b
b110011 0
b110011 [
b10 $
b10 E
b1110110011 3
b1110110011 B
b1110110011 `
b1000 /
b1000 G
b1000 D
b1000 F
1!
#540
0!
#545
b1 #
b1 g
b1 ;
b1 A
b1 L
08
b1 ?
1:
b10000 .
b10000 C
b1 4
b1 a
b1 &
b1 f
b11100 ,
b11100 b
b10011 0
b10011 [
b11 $
b11 E
b100000000111000010011 3
b100000000111000010011 B
b100000000111000010011 `
b1100 /
b1100 G
b1100 D
b1100 F
1!
#550
0!
#555
b0 Y
b0 #
b0 g
b111 =
b111 @
b111 K
b1 -
b1 \
b0 ;
b0 A
b0 L
0:
b10 5
b10 ]
b10 _
b1 <
b1 J
b1 ^
b1010 ?
0)
19
b0 .
b0 C
b1100 4
b1100 a
b1010 *
b1010 X
b1010 d
b101 &
b101 f
b110 '
b110 e
b1100 ,
b1100 b
b1100011 0
b1100011 [
b100 $
b100 E
b10100110000011001100011 3
b10100110000011001100011 B
b10100110000011001100011 `
b10000 /
b10000 G
b10000 D
b10000 F
1!
#560
0!
#565
b10 Y
b100 .
b100 C
b1010 #
b1010 g
b0 -
b0 \
b1010 ;
b1010 A
b1010 L
b0 =
b0 @
b0 K
08
1:
b0 5
b0 ]
b0 _
b0 <
b0 J
b0 ^
b1010 ?
1)
09
b1010 4
b1010 a
b0 *
b0 X
b0 d
b1010 &
b1010 f
b0 '
b0 e
b101 ,
b101 b
b10011 0
b10011 [
b0 $
b0 E
b101000000000001010010011 3
b101000000000001010010011 B
b101000000000001010010011 `
b0 /
b0 G
b0 D
b0 F
1!
#570
0!
#575
b0 Y
b0 #
b0 g
b0 ;
b0 A
b0 L
18
b0 ?
b1000 .
b1000 C
b0 4
b0 a
b0 &
b0 f
b110 ,
b110 b
b1 $
b1 E
b1100010011 3
b1100010011 B
b1100010011 `
b100 /
b100 G
b100 D
b100 F
1!
#580
0!
#585
0:
1)
b1100 .
b1100 C
b111 ,
b111 b
b110011 0
b110011 [
b10 $
b10 E
b1110110011 3
b1110110011 B
b1110110011 `
b1000 /
b1000 G
b1000 D
b1000 F
1!
#590
0!
#595
b1 #
b1 g
b1 ;
b1 A
b1 L
08
b1 ?
1:
b10000 .
b10000 C
b1 4
b1 a
b1 &
b1 f
b11100 ,
b11100 b
b10011 0
b10011 [
b11 $
b11 E
b100000000111000010011 3
b100000000111000010011 B
b100000000111000010011 `
b1100 /
b1100 G
b1100 D
b1100 F
1!
#600
0!
#605
b0 Y
b0 #
b0 g
b111 =
b111 @
b111 K
b1 -
b1 \
b0 ;
b0 A
b0 L
0:
b10 5
b10 ]
b10 _
b1 <
b1 J
b1 ^
b1010 ?
0)
19
b0 .
b0 C
b1100 4
b1100 a
b1010 *
b1010 X
b1010 d
b101 &
b101 f
b110 '
b110 e
b1100 ,
b1100 b
b1100011 0
b1100011 [
b100 $
b100 E
b10100110000011001100011 3
b10100110000011001100011 B
b10100110000011001100011 `
b10000 /
b10000 G
b10000 D
b10000 F
1!
#610
0!
#615
b10 Y
b100 .
b100 C
b1010 #
b1010 g
b0 -
b0 \
b1010 ;
b1010 A
b1010 L
b0 =
b0 @
b0 K
08
1:
b0 5
b0 ]
b0 _
b0 <
b0 J
b0 ^
b1010 ?
1)
09
b1010 4
b1010 a
b0 *
b0 X
b0 d
b1010 &
b1010 f
b0 '
b0 e
b101 ,
b101 b
b10011 0
b10011 [
b0 $
b0 E
b101000000000001010010011 3
b101000000000001010010011 B
b101000000000001010010011 `
b0 /
b0 G
b0 D
b0 F
1!
#620
0!
#625
b0 Y
b0 #
b0 g
b0 ;
b0 A
b0 L
18
b0 ?
b1000 .
b1000 C
b0 4
b0 a
b0 &
b0 f
b110 ,
b110 b
b1 $
b1 E
b1100010011 3
b1100010011 B
b1100010011 `
b100 /
b100 G
b100 D
b100 F
1!
#630
0!
#635
0:
1)
b1100 .
b1100 C
b111 ,
b111 b
b110011 0
b110011 [
b10 $
b10 E
b1110110011 3
b1110110011 B
b1110110011 `
b1000 /
b1000 G
b1000 D
b1000 F
1!
#640
0!
#645
b1 #
b1 g
b1 ;
b1 A
b1 L
08
b1 ?
1:
b10000 .
b10000 C
b1 4
b1 a
b1 &
b1 f
b11100 ,
b11100 b
b10011 0
b10011 [
b11 $
b11 E
b100000000111000010011 3
b100000000111000010011 B
b100000000111000010011 `
b1100 /
b1100 G
b1100 D
b1100 F
1!
#650
0!
#655
b0 Y
b0 #
b0 g
b111 =
b111 @
b111 K
b1 -
b1 \
b0 ;
b0 A
b0 L
0:
b10 5
b10 ]
b10 _
b1 <
b1 J
b1 ^
b1010 ?
0)
19
b0 .
b0 C
b1100 4
b1100 a
b1010 *
b1010 X
b1010 d
b101 &
b101 f
b110 '
b110 e
b1100 ,
b1100 b
b1100011 0
b1100011 [
b100 $
b100 E
b10100110000011001100011 3
b10100110000011001100011 B
b10100110000011001100011 `
b10000 /
b10000 G
b10000 D
b10000 F
1!
#660
0!
